{
    "openapi": "3.0.0",
    "info": {
        "title": "Amazing Laravel Api",
        "description": "Not enough words to describe it",
        "contact": {
            "email": "razvan@rrazvan.dev"
        },
        "license": {
            "name": "Apache 2.0",
            "url": "http://www.apache.org/licenses/LICENSE-2.0.html"
        },
        "version": "1.0.0"
    },
    "servers": [
        {
            "url": "https://ama.rrazvan.dev",
            "description": "Amazing Server"
        }
    ],
    "components": {
        "securitySchemes": {
            "name": {
                "type": "http",
                "scheme": "bearer",
                "bearerFormat": "JWT"
            }
        }
    },
    "paths": {
        "/api/login": {
            "post": {
                "summary": "Login with email and password",
                "operationId": "App\\Http\\Controllers\\Auth\\AuthController::login",
                "requestBody": {
                    "content": {
                        "application/json": {
                            "schema": {
                                "properties": {
                                    "email": {
                                        "type": "string"
                                    },
                                    "password": {
                                        "type": "string"
                                    }
                                },
                                "type": "object",
                                "example": {
                                    "email": "test@testy.com",
                                    "password": "password"
                                }
                            }
                        }
                    }
                },
                "responses": {
                    "200": {
                        "description": "Access code",
                        "content": {
                            "application/json": {
                                "schema": {
                                    "properties": {
                                        "status": {
                                            "type": "string"
                                        },
                                        "message": {
                                            "type": "string"
                                        },
                                        "data": {
                                            "type": "object",
                                            "properties": {
                                                "access_token": {
                                                    "type": "string"
                                                },
                                                "token_type": {
                                                    "type": "string"
                                                }
                                            }
                                        }
                                    },
                                    "type": "object",
                                    "example": {
                                        "status": "Success",
                                        "message": null,
                                        "data": {
                                            "access_token": "xxxxxxxxxxxx",
                                            "token_type": "Bearer"
                                        }
                                    }
                                }
                            }
                        }
                    }
                }
            }
        },
        "/api/advs": {
            "get": {
                "summary": "Fetch adverts paginated",
                "operationId": "App\\Http\\Controllers\\AdvertAdvertController::index",
                "responses": {
                    "200": {
                        "description": "List of adverts",
                        "content": {
                            "application/json": {
                                "schema": {
                                    "properties": {
                                        "status_code": {
                                            "type": "string"
                                        },
                                        "status": {
                                            "type": "string"
                                        },
                                        "data": {
                                            "type": "object",
                                            "properties": {
                                                "current_page": {
                                                    "type": "integer"
                                                },
                                                "data": {
                                                    "type": "array",
                                                    "items": {
                                                        "type": "object",
                                                        "properties": {
                                                            "id": {
                                                                "type": "integer"
                                                            },
                                                            "title": {
                                                                "type": "string"
                                                            },
                                                            "description": {
                                                                "type": "string"
                                                            },
                                                            "price": {
                                                                "type": "string"
                                                            },
                                                            "priceType": {
                                                                "type": "string"
                                                            },
                                                            "postedDate": {
                                                                "type": "string"
                                                            },
                                                            "images": {
                                                                "type": "array",
                                                                "items": {
                                                                    "type": "object",
                                                                    "properties": {
                                                                        "id": {
                                                                            "type": "integer"
                                                                        },
                                                                        "created_at": {
                                                                            "type": "string"
                                                                        },
                                                                        "updated_at": {
                                                                            "type": "string"
                                                                        },
                                                                        "advert_id": {
                                                                            "type": "string"
                                                                        },
                                                                        "imageUrl": {
                                                                            "type": "string"
                                                                        }
                                                                    }
                                                                }
                                                            },
                                                            "advertUrl": {
                                                                "type": "string"
                                                            },
                                                            "size": {
                                                                "type": "string"
                                                            },
                                                            "floor": {
                                                                "type": "string"
                                                            },
                                                            "advertId": {
                                                                "type": "string"
                                                            },
                                                            "region": {
                                                                "type": "string"
                                                            },
                                                            "city": {
                                                                "type": "string"
                                                            },
                                                            "rooms": {
                                                                "type": "string"
                                                            },
                                                            "created_at": {
                                                                "type": "string"
                                                            },
                                                            "updated_at": {
                                                                "type": "string"
                                                            }
                                                        }
                                                    }
                                                },
                                                "first_page_url": {
                                                    "type": "string"
                                                },
                                                "from": { "type": "integer" },
                                                "last_page": {
                                                    "type": "integer"
                                                },
                                                "last_page_url": {
                                                    "type": "string"
                                                },
                                                "links": {
                                                    "type": "array",
                                                    "items": {
                                                        "type": "object",
                                                        "properties": {
                                                            "active": {
                                                                "type": "boolean"
                                                            },
                                                            "label": {
                                                                "type": "string"
                                                            },
                                                            "url": {
                                                                "type": "string"
                                                            }
                                                        }
                                                    }
                                                },
                                                "next_page_url": {
                                                    "type": "string"
                                                },
                                                "path": { "type": "string" },
                                                "per_page": {
                                                    "type": "string"
                                                },
                                                "prev_page_url": {
                                                    "type": "string"
                                                },
                                                "to": { "type": "integer" },
                                                "total": { "type": "integer" }
                                            }
                                        }
                                    },
                                    "type": "object",
                                    "example": {
                                        "status": "Success",
                                        "message": null,
                                        "data": {
                                            "current_page": 1,
                                            "data": [
                                                {
                                                    "id": 6,
                                                    "title": "NEW! \u0448\u0438\u043a\u0430\u0440\u043d\u0430\u044f \u0441\u0442\u0443\u0434\u0438\u044f \u0434\u043b\u044f VIP \u0433\u043e\u0441\u0442\u0435\u0439 \u0432 \u0446\u0435\u043d\u0442\u0440\u0435 \u041c\u0438\u043d\u0441\u043a\u0430 (\u043c\u0435\u0442\u0440\u043e \u043f\u043b. \u041f\u043e\u0431\u0435\u0434\u044b)",
                                                    "description": "NEW!!! \u0448\u0438\u043a\u0430\u0440\u043d\u0430\u044f \u0441\u0442\u0443\u0434\u0438\u044f \u0434\u043b\u044f VIP \u0433\u043e\u0441\u0442\u0435\u0439 \u0432 \u0446\u0435\u043d\u0442\u0440\u0435 \u041c\u0438\u043d\u0441\u043a\u0430 (\u043c\u0435\u0442\u0440\u043e \u043f\u043b.\u041f\u043e\u0431\u0435\u0434\u044b)  \u0414\u0438\u0437\u0430\u0439\u043d\u0440\u0435\u043c\u043e\u043d\u0442 . Wi-Fi. \u0428\u0438\u043a\u0430\u0440\u043d\u044b\u0435 \u0430\u043f\u0430\u0440\u0442\u0430\u043c\u0435\u043d\u0442\u044b \u0432 \u0441\u0430\u043c\u043e\u043c \u0446\u0435\u043d\u0442\u0440\u0435 \u041c\u0438\u043d\u0441\u043a\u0430 \u0441 \u0431\u043e\u043b\u044c\u0448\u043e\u0439 \u0443\u0433\u043b\u043e\u0432\u0430\u043e\u0439 \u0432\u0430\u043d\u043d\u043e\u0439 . \u0441\u0442\u0443\u0434\u0438\u044f \u0432\u044b\u043f\u043e\u043b\u043d\u0435\u043d\u0430 \u0432 \u043a\u043b\u0430\u0441\u0441\u0438\u0447\u0435\u0441\u043a\u043e\u043c \u0441\u0442\u0438\u043b\u0435. \u041a\u043e\u0436\u0430\u043d\u0430\u044f \u043c\u0435\u0431\u0435\u043b\u044c \u043f\u043e \u0438\u043d\u0434\u0438\u0432\u0438\u0434\u0443\u0430\u043b\u044c\u043d\u043e\u043c\u0443 \u043f\u0440\u043e\u0435\u043a\u0442\u0443, \u043e\u0433\u0440\u043e\u043c\u043d\u044b\u0439 \u043f\u043b\u0430\u0437\u043c\u0435\u043d\u043d\u044b\u0439 \u0422\u0412, . \u0418\u043c\u0435\u0435\u0442\u0441\u044f \u0432\u0441\u044f \u0431\u044b\u0442\u043e\u0432\u0430\u044f \u0442\u0435\u0445\u043d\u0438\u043a\u0430. \u041f\u043e\u0441\u0443\u0434\u0430 . \u041e\u043a\u043d\u0430 \u0430\u043f\u0430\u0440\u0442\u0430\u043c\u0435\u043d\u0442\u043e\u0432 \u0432\u044b\u0445\u043e\u0434\u044f\u0442 \u0432 \u0443\u044e\u0442\u043d\u044b\u0439 \u0434\u0432\u043e\u0440, (\u043d\u0435 \u043f\u0440\u043e\u0445\u043e\u0434\u043d\u043e\u0439 \u0438 \u043e\u0445\u0440\u0430\u043d\u044f\u0435\u043c\u044b\u0439 \u2013 \u0440\u044f\u0434\u043e\u043c \u043f\u043e\u0441\u043e\u043b\u044c\u0441\u0442\u0432\u043e \u0440\u0435\u0441\u043f\u0443\u0431\u043b\u0438\u043a\u0438 \u041a\u0443\u0431\u0430) \u2013 \u0412\u0430\u0448 \u0430\u0432\u0442\u043e \u0431\u0443\u0434\u0435\u0442 \u043f\u043e\u0434 \u043e\u0445\u0440\u0430\u043d\u043e\u0439 \u0438 \u0441\u043e\u0432\u0435\u0440\u0448\u0435\u043d\u043d\u043e \u0431\u0435\u0441\u043f\u043b\u0430\u0442\u043d\u043e. \u0420\u044f\u0434\u043e\u043c \u043a\u043b\u0443\u0431 DOZARI , \u043a\u0430\u0437\u0438\u043d\u043e \u0425\u041e . \u0421\u0430\u043c\u043e\u0435 \u043f\u043e\u043f\u0443\u043b\u044f\u0440\u043d\u043e\u0435 \u043a\u0430\u0444\u0435 \u0431\u0435\u043b\u043e\u0440\u0443\u0441\u0441\u043a\u043e\u0439 \u043a\u0443\u0445\u043d\u0438 LIDO, \u0428\u0442\u043e\u043b\u043b\u0435 (\u043f\u0438\u0440\u043e\u0433\u0438), \u0440\u0435\u0441\u0442\u043e\u0440\u0430\u043d\u044b Porto del mare, D`Olivo, \u043a\u0438\u043d\u043e\u0442\u0435\u0430\u0442\u0440 \u041c\u0418\u0420. \u0434\u0435\u0442\u0441\u043a\u0438\u0439 \u043f\u0430\u0440\u043a \u0438\u043c.\u0413\u043e\u0440\u044c\u043a\u043e\u0433\u043e, \u0411\u0443\u0442\u0438\u043a\u0438, \u0426\u0423\u041c, \u041a\u043e\u043c\u0430\u0440\u043e\u0432\u0441\u043a\u0438\u0439 \u0440\u044b\u043d\u043e\u043a. \u0446\u0435\u043d\u0430 \u043e\u0442 35\u0434\u043e\u043b\u043b/\u0441\u0443\u0442\u043a\u0438, \u0437\u0430\u0432\u0438\u0441\u0438\u0442 \u043e\u0442 \u043a\u043e\u043b\u0438\u0447\u0435\u0441\u0442\u0432\u0430 \u0433\u043e\u0441\u0442\u0435\u0439 \u0438 \u0434\u043d\u0435\u0439 \u043f\u0440\u043e\u0436\u0438\u0432\u0430\u043d\u0438\u044f.\u0447\u0430\u0441\u044b \u043e\u0442 20 \u0434\u043e\u043b\u043b. \u0441\u043f\u0430\u043b\u044c\u043d\u044b\u0445 \u043c\u0435\u0441\u0442 2+1 e-mail : sv.kolosovskay@mail.ru  skype : max_m-four  WhatsApp viber +375445558182",
                                                    "price": 80,
                                                    "priceType": "\u00a0\u0440\u0443\u0431/\u0441\u0443\u0442\u043a\u0438",
                                                    "postedDate": "2020-10-29 00:00:00",
                                                    "advertUrl": "https://realt.by/rent/flat-for-day/object/564173/",
                                                    "size": " 35 / 30 / \u2013 \u043c\u00b2 ",
                                                    "floor": " 1 / 5 ",
                                                    "rooms": 1,
                                                    "advertId": "564173",
                                                    "created_at": "2020-10-30T14:10:16.000000Z",
                                                    "updated_at": "2020-10-30T14:10:16.000000Z",
                                                    "region": " \u041c\u0438\u043d\u0441\u043a\u0430\u044f \u043e\u0431\u043b\u0430\u0441\u0442\u044c ",
                                                    "city": " \u041c\u0438\u043d\u0441\u043a ",
                                                    "images": [
                                                        {
                                                            "id": 82,
                                                            "created_at": "2020-10-30T14:10:16.000000Z",
                                                            "updated_at": "2020-10-30T14:10:16.000000Z",
                                                            "advert_id": 6,
                                                            "imageUrl": "https://realt.by/thumb/c/224x224/d44793550938be9a52d64e8fc0c69b64/m8/d/r20013413dm8/11f13d6899.jpg"
                                                        },
                                                        {
                                                            "id": 83,
                                                            "created_at": "2020-10-30T14:10:16.000000Z",
                                                            "updated_at": "2020-10-30T14:10:16.000000Z",
                                                            "advert_id": 6,
                                                            "imageUrl": "https://realt.by/thumb/c/224x224/537295eeeb44f8100aa21e71f38e7ed5/m8/d/r20013413dm8/f605935f40.jpg"
                                                        }
                                                    ]
                                                },
                                                {
                                                    "id": 7,
                                                    "title": "\u0428\u0438\u043a\u0430\u0440\u043d\u044b\u0435, \u043d\u043e\u0432\u044b\u0435 \u0410\u043f\u0430\u0440\u0442\u0430\u043c\u0435\u043d\u0442\u044b Spa \u0441 \u0441\u0430\u0443\u043d\u043e\u0439 \u0432 \u0446\u0435\u043d\u0442\u0440\u0435 \u041c\u0438\u043d\u0441\u043a\u0430(\u043c\u0435\u0442\u0440\u043e \u043f\u043b\u043e\u0449\u0430\u0434\u044c \u041b\u0435\u043d\u0438\u043d\u0430, \u0432\u043e\u043a\u0437\u0430\u043b)",
                                                    "description": "\u0410\u043f\u0430\u0440\u0442\u0430\u043c\u0435\u043d\u0442\u044b VIP-\u043a\u043b\u0430\u0441\u0441\u0430 \u0441 \u0421\u0410\u0423\u041d\u041e\u0419 \u0432 \u0446\u0435\u043d\u0442\u0440\u0435 \u041c\u0438\u043d\u0441\u043a\u0430. \u0412 \u0448\u0430\u0433\u043e\u0432\u043e\u0439 \u0434\u043e\u0441\u0442\u0443\u043f\u043d\u043e\u0441\u0442\u0438 \u0436/\u0434 \u0432\u043e\u043a\u0437\u0430\u043b, \u0430/\u0432 \u0432\u043e\u043a\u0437\u0430\u043b, \u0441\u0442\u0430\u043d\u0446\u0438\u044f \u043c\u0435\u0442\u0440\u043e \"\u041f\u043b\u043e\u0449\u0430\u0434\u044c \u041b\u0435\u043d\u0438\u043d\u0430\", \u0441\u0442\u0430\u0434\u0438\u043e\u043d \"\u0414\u0438\u043d\u0430\u043c\u043e\", \u041c\u0438\u0445\u0430\u0439\u043b\u043e\u0432\u0441\u043a\u0438\u0439 \u0441\u043a\u0432\u0435\u0440, \u0422\u0426 \"\u0413\u0430\u043b\u0438\u043b\u0435\u043e\", \u043a\u0430\u0444\u0435, \u0431\u0430\u0440\u044b, \u0440\u0435\u0441\u0442\u043e\u0440\u0430\u043d\u044b, \u043a\u0430\u0437\u0438\u043d\u043e, \u043c\u0430\u0433\u0430\u0437\u0438\u043d\u044b. \u041a\u0432\u0430\u0440\u0442\u0438\u0440\u0430 \u0432 \u0441\u043e\u0432\u0440\u0435\u043c\u0435\u043d\u043d\u043e\u043c \u0434\u0438\u0437\u0430\u0439\u043d\u0435, \u0441 \u043f\u0440\u043e\u0441\u0442\u043e\u0440\u043d\u044b\u043c\u0438, \u0443\u044e\u0442\u043d\u044b\u043c\u0438 \u0438 \u0441\u0432\u0435\u0442\u043b\u044b\u043c\u0438 \u043a\u043e\u043c\u043d\u0430\u0442\u0430\u043c\u0438. \u0412 \u0430\u043f\u0430\u0440\u0442\u0430\u043c\u0435\u043d\u0442\u0430\u0445 \u043f\u0440\u0438\u0441\u0443\u0442\u0441\u0442\u0432\u0443\u0435\u0442 \u0432\u0441\u044f \u043d\u0435\u043e\u0431\u0445\u043e\u0434\u0438\u043c\u0430\u044f \u043c\u0435\u0431\u0435\u043b\u044c \u0438 \u0431\u044b\u0442\u043e\u0432\u0430\u044f \u0442\u0435\u0445\u043d\u0438\u043a\u0430, \u0430 \u0442\u0430\u043a\u0436\u0435 \u0441\u0430\u0443\u043d\u0430.  \u0421\u043f\u0430\u043b\u044c\u043d\u044b\u0445 \u043c\u0435\u0441\u0442 2+2+2.",
                                                    "price": 87,
                                                    "priceType": "\u00a0\u0440\u0443\u0431/\u0441\u0443\u0442\u043a\u0438",
                                                    "postedDate": "2020-09-03 00:00:00",
                                                    "advertUrl": "https://realt.by/rent/flat-for-day/object/359306/",
                                                    "size": " 77 / 60 / \u2013 \u043c\u00b2 ",
                                                    "floor": " 4 / 5 ",
                                                    "rooms": 3,
                                                    "advertId": "359306",
                                                    "created_at": "2020-10-30T14:10:17.000000Z",
                                                    "updated_at": "2020-10-30T14:10:17.000000Z",
                                                    "region": " \u041c\u0438\u043d\u0441\u043a\u0430\u044f \u043e\u0431\u043b\u0430\u0441\u0442\u044c ",
                                                    "city": " \u041c\u0438\u043d\u0441\u043a ",
                                                    "images": [
                                                        {
                                                            "id": 96,
                                                            "created_at": "2020-10-30T14:10:17.000000Z",
                                                            "updated_at": "2020-10-30T14:10:17.000000Z",
                                                            "advert_id": 7,
                                                            "imageUrl": "https://realt.by/thumb/c/224x224/10a5fbf45bdbdd3385eeca54290c1215/w6/g/r2001xjg3gw6/2bacdd5373.jpg"
                                                        },
                                                        {
                                                            "id": 97,
                                                            "created_at": "2020-10-30T14:10:17.000000Z",
                                                            "updated_at": "2020-10-30T14:10:17.000000Z",
                                                            "advert_id": 7,
                                                            "imageUrl": "https://realt.by/thumb/c/224x224/79dd160771d5da3db0d7cdf03f33d87d/w6/g/r2001xjg3gw6/90d857ab86.jpg"
                                                        }
                                                    ]
                                                }
                                            ],
                                            "first_page_url": "http://ama.rrazvan.dev/api/advs?page=1",
                                            "from": 1,
                                            "last_page": 44,
                                            "last_page_url": "http://ama.rrazvan.dev/api/advs?page=44",
                                            "links": [
                                                {
                                                    "url": null,
                                                    "label": "&laquo; Previous",
                                                    "active": false
                                                },
                                                {
                                                    "url": "http://ama.rrazvan.dev/api/advs?page=1",
                                                    "label": 1,
                                                    "active": true
                                                }
                                            ],
                                            "next_page_url": "http://ama.rrazvan.dev/api/advs?page=2",
                                            "path": "http://ama.rrazvan.dev/api/advs",
                                            "per_page": 6,
                                            "prev_page_url": null,
                                            "to": 6,
                                            "total": 264
                                        }
                                    }
                                }
                            }
                        }
                    }
                }
            }
        }
    },
    "security": [{ "name": [] }]
}
